…
Then we join the gapminder with the new\_data using different join function.

1. `left_join`
==============

in this case, the new\_data is matched to the gapminder dataset.

``` r
left_join(gapminder,new_data,by="country")
```

    ## Warning: Column `country` joining factor and character vector, coercing
    ## into character vector

    ## # A tibble: 1,728 x 8
    ##    country   continent  year lifeExp     pop gdpPercap lang_name lang_code
    ##    <chr>     <fct>     <int>   <dbl>   <int>     <dbl> <chr>     <chr>    
    ##  1 Afghanis~ Asia       1952    28.8  8.43e6      779. Pashto    ps       
    ##  2 Afghanis~ Asia       1957    30.3  9.24e6      821. Pashto    ps       
    ##  3 Afghanis~ Asia       1962    32.0  1.03e7      853. Pashto    ps       
    ##  4 Afghanis~ Asia       1967    34.0  1.15e7      836. Pashto    ps       
    ##  5 Afghanis~ Asia       1972    36.1  1.31e7      740. Pashto    ps       
    ##  6 Afghanis~ Asia       1977    38.4  1.49e7      786. Pashto    ps       
    ##  7 Afghanis~ Asia       1982    39.9  1.29e7      978. Pashto    ps       
    ##  8 Afghanis~ Asia       1987    40.8  1.39e7      852. Pashto    ps       
    ##  9 Afghanis~ Asia       1992    41.7  1.63e7      649. Pashto    ps       
    ## 10 Afghanis~ Asia       1997    41.8  2.22e7      635. Pashto    ps       
    ## # ... with 1,718 more rows

2. `right_join`
===============

in this case, the gapminder is matched to the new\_data.

``` r
right_join(gapminder,new_data,by="country")
```

    ## Warning: Column `country` joining factor and character vector, coercing
    ## into character vector

    ## # A tibble: 1,685 x 8
    ##    country   continent  year lifeExp     pop gdpPercap lang_name lang_code
    ##    <chr>     <fct>     <int>   <dbl>   <int>     <dbl> <chr>     <chr>    
    ##  1 Afghanis~ Asia       1952    28.8  8.43e6      779. Pashto    ps       
    ##  2 Afghanis~ Asia       1957    30.3  9.24e6      821. Pashto    ps       
    ##  3 Afghanis~ Asia       1962    32.0  1.03e7      853. Pashto    ps       
    ##  4 Afghanis~ Asia       1967    34.0  1.15e7      836. Pashto    ps       
    ##  5 Afghanis~ Asia       1972    36.1  1.31e7      740. Pashto    ps       
    ##  6 Afghanis~ Asia       1977    38.4  1.49e7      786. Pashto    ps       
    ##  7 Afghanis~ Asia       1982    39.9  1.29e7      978. Pashto    ps       
    ##  8 Afghanis~ Asia       1987    40.8  1.39e7      852. Pashto    ps       
    ##  9 Afghanis~ Asia       1992    41.7  1.63e7      649. Pashto    ps       
    ## 10 Afghanis~ Asia       1997    41.8  2.22e7      635. Pashto    ps       
    ## # ... with 1,675 more rows

These two methods results in different row numbers since they are joined with different reference.

3. `semi_join`
==============

``` r
## This only return return all rows from new_data where there are matching values in gapminder, keeping just columns from new_data.
semi_join(new_data,gapminder,by="country")
```

    ## Warning: Column `country` joining character vector and factor, coercing
    ## into character vector

    ## # A tibble: 132 x 3
    ##    country     lang_name         lang_code
    ##    <chr>       <chr>             <chr>    
    ##  1 Afghanistan Pashto            ps       
    ##  2 Albania     Albanian          sq       
    ##  3 Algeria     Tamazight (Latin) tzm      
    ##  4 Angola      <NA>              <NA>     
    ##  5 Argentina   Spanish           es       
    ##  6 Australia   English           en       
    ##  7 Austria     German            de       
    ##  8 Bahrain     Arabic            ar       
    ##  9 Bangladesh  Bengali           bn       
    ## 10 Belgium     French            fr       
    ## # ... with 122 more rows

``` r
##  This only return return all rows from gapminder where there are matching values in new_data, keeping just columns from gapminder.
semi_join(gapminder,new_data,by="country")
```

    ## Warning: Column `country` joining factor and character vector, coercing
    ## into character vector

    ## # A tibble: 1,560 x 6
    ##    country     continent  year lifeExp      pop gdpPercap
    ##    <fct>       <fct>     <int>   <dbl>    <int>     <dbl>
    ##  1 Afghanistan Asia       1952    28.8  8425333      779.
    ##  2 Afghanistan Asia       1957    30.3  9240934      821.
    ##  3 Afghanistan Asia       1962    32.0 10267083      853.
    ##  4 Afghanistan Asia       1967    34.0 11537966      836.
    ##  5 Afghanistan Asia       1972    36.1 13079460      740.
    ##  6 Afghanistan Asia       1977    38.4 14880372      786.
    ##  7 Afghanistan Asia       1982    39.9 12881816      978.
    ##  8 Afghanistan Asia       1987    40.8 13867957      852.
    ##  9 Afghanistan Asia       1992    41.7 16317921      649.
    ## 10 Afghanistan Asia       1997    41.8 22227415      635.
    ## # ... with 1,550 more rows
4. `anti_join`
==============

With the anti\_join, it returns all rows from new\_data where there are not matching values in gapminder, keeping just columns from new\_data. So the following table shows the country with no information in gapminder.

``` r
anti_join(new_data, gapminder)
```

    ## Joining, by = "country"

    ## Warning: Column `country` joining character vector and factor, coercing
    ## into character vector

    ## # A tibble: 101 x 3
    ##    country             lang_name     lang_code
    ##    <chr>               <chr>         <chr>    
    ##  1 American Samoa      <NA>          <NA>     
    ##  2 Andorra             <NA>          <NA>     
    ##  3 Anguilla            <NA>          <NA>     
    ##  4 Antigua and Barbuda <NA>          <NA>     
    ##  5 Armenia             Armenian      hy       
    ##  6 Aruba               <NA>          <NA>     
    ##  7 Azerbaijan          Azeri (Latin) az       
    ##  8 Bahamas             <NA>          <NA>     
    ##  9 Barbados            <NA>          <NA>     
    ## 10 Belarus             Belarusian    be       
    ## # ... with 91 more rows
5. `inner_join()`
=================

This return all rows from gapminder where there are matching values in new\_data, and all columns from gapminder and new\_data. If there are multiple matches between gapminder and new\_data, all combination of the matches are returned.

``` r
inner_join(gapminder,new_data)
```

    ## Joining, by = "country"

    ## Warning: Column `country` joining factor and character vector, coercing
    ## into character vector

    ## # A tibble: 1,584 x 8
    ##    country   continent  year lifeExp     pop gdpPercap lang_name lang_code
    ##    <chr>     <fct>     <int>   <dbl>   <int>     <dbl> <chr>     <chr>    
    ##  1 Afghanis~ Asia       1952    28.8  8.43e6      779. Pashto    ps       
    ##  2 Afghanis~ Asia       1957    30.3  9.24e6      821. Pashto    ps       
    ##  3 Afghanis~ Asia       1962    32.0  1.03e7      853. Pashto    ps       
    ##  4 Afghanis~ Asia       1967    34.0  1.15e7      836. Pashto    ps       
    ##  5 Afghanis~ Asia       1972    36.1  1.31e7      740. Pashto    ps       
    ##  6 Afghanis~ Asia       1977    38.4  1.49e7      786. Pashto    ps       
    ##  7 Afghanis~ Asia       1982    39.9  1.29e7      978. Pashto    ps       
    ##  8 Afghanis~ Asia       1987    40.8  1.39e7      852. Pashto    ps       
    ##  9 Afghanis~ Asia       1992    41.7  1.63e7      649. Pashto    ps       
    ## 10 Afghanis~ Asia       1997    41.8  2.22e7      635. Pashto    ps       
    ## # ... with 1,574 more rows
6. `full_join()`
================

This is the optimal method to retain all the useful information among the dataset new\_data and gapminder. `full_join` return all rows and all columns from both new\_data and gapminder. Where there are not matching values, returns NA for the one missing.

``` r
full_join(new_data, gapminder)
```

    ## Joining, by = "country"

    ## Warning: Column `country` joining character vector and factor, coercing
    ## into character vector

    ## # A tibble: 1,829 x 8
    ##    country   lang_name lang_code continent  year lifeExp     pop gdpPercap
    ##    <chr>     <chr>     <chr>     <fct>     <int>   <dbl>   <int>     <dbl>
    ##  1 Afghanis~ Pashto    ps        Asia       1952    28.8  8.43e6      779.
    ##  2 Afghanis~ Pashto    ps        Asia       1957    30.3  9.24e6      821.
    ##  3 Afghanis~ Pashto    ps        Asia       1962    32.0  1.03e7      853.
    ##  4 Afghanis~ Pashto    ps        Asia       1967    34.0  1.15e7      836.
    ##  5 Afghanis~ Pashto    ps        Asia       1972    36.1  1.31e7      740.
    ##  6 Afghanis~ Pashto    ps        Asia       1977    38.4  1.49e7      786.
    ##  7 Afghanis~ Pashto    ps        Asia       1982    39.9  1.29e7      978.
    ##  8 Afghanis~ Pashto    ps        Asia       1987    40.8  1.39e7      852.
    ##  9 Afghanis~ Pashto    ps        Asia       1992    41.7  1.63e7      649.
    ## 10 Afghanis~ Pashto    ps        Asia       1997    41.8  2.22e7      635.
    ## # ... with 1,819 more rows

7. `bind_rows()`
================

With function `bind_rows()`, it simply append the gapminder to new\_data as the new row and the missing information in each entry will be shown as "NA". The problem with this join method is it won't match the row withe the same country name, therefore, it is not useful for analysis. In addition, another similar function \`bin\_cols' will not work in this case since these datasets have different row number.

``` r
bind_rows(new_data,gapminder)
```

    ## Warning in bind_rows_(x, .id): binding character and factor vector,
    ## coercing into character vector

    ## # A tibble: 1,937 x 8
    ##    country    lang_name  lang_code continent  year lifeExp   pop gdpPercap
    ##    <chr>      <chr>      <chr>     <fct>     <int>   <dbl> <int>     <dbl>
    ##  1 Afghanist~ Pashto     ps        <NA>         NA      NA    NA        NA
    ##  2 Albania    Albanian   sq        <NA>         NA      NA    NA        NA
    ##  3 Algeria    Tamazight~ tzm       <NA>         NA      NA    NA        NA
    ##  4 American ~ <NA>       <NA>      <NA>         NA      NA    NA        NA
    ##  5 Andorra    <NA>       <NA>      <NA>         NA      NA    NA        NA
    ##  6 Angola     <NA>       <NA>      <NA>         NA      NA    NA        NA
    ##  7 Anguilla   <NA>       <NA>      <NA>         NA      NA    NA        NA
    ##  8 Antigua a~ <NA>       <NA>      <NA>         NA      NA    NA        NA
    ##  9 Argentina  Spanish    es        <NA>         NA      NA    NA        NA
    ## 10 Armenia    Armenian   hy        <NA>         NA      NA    NA        NA
    ## # ... with 1,927 more rows
…
